[
  {
    "name": "Кобзар",
    "price": 120.0,
    "imageUrl": "./books/kobzar.jfif",
    "sku": "100001",
    "color": "blue"
  },
  {
    "name": "Захар Беркут",
    "price": 150.0,
    "imageUrl": "./books/zahar.jfif",
    "sku": "100002",
    "color": "red"
  },
  {
    "name": "Тіні забутих предків",
    "price": 130.0,
    "imageUrl": "./books/tini.jfif",
    "sku": "100003",
    "color": "green"
  },
  {
    "name": "Собор",
    "price": 140.0,
    "imageUrl": "./books/sobor.jfif",
    "sku": "100004",
    "color": "yellow"
  },
  {
    "name": "Чорний ворон",
    "price": 160.0,
    "imageUrl": "./books/voron.jfif",
    "sku": "100005",
    "color": "black"
  },
  {
    "name": "Маруся Чурай",
    "price": 110.0,
    "imageUrl": "./books/chunai.jfif",
    "sku": "100006",
    "color": "white"
  },
  {
    "name": "Вечори на хуторі біля Диканьки",
    "price": 145.0,
    "imageUrl": "./books/dikanka.jfif",
    "sku": "100007",
    "color": "brown"
  },
  {
    "name": "Буремний шлях",
    "price": 155.0,
    "imageUrl": "./books/shlyach.jfif",
    "sku": "100008",
    "color": "orange"
  },
  {
    "name": "Солодка Даруся",
    "price": 135.0,
    "imageUrl": "./books/darusya.jfif",
    "sku": "100009",
    "color": "purple"
  },
  {
    "name": "Сад Гетсиманський",
    "price": 125.0,
    "imageUrl": "./books/sad.jfif",
    "sku": "100010",
    "color": "gray"
  },
  {
    "name": "Місто",
    "price": 130.0,
    "imageUrl": "./books/misto.jfif",
    "sku": "100011",
    "color": "blue"
  },
  {
    "name": "Кайдашева сім'я",
    "price": 120.0,
    "imageUrl": "./books/kaidash.jfif",
    "sku": "100012",
    "color": "green"
  }
]
